{
    "workbench.colorTheme": "Dracula",
    "workbench.iconTheme": "material-icon-theme",
    "files.autoSave": "afterDelay",
    "editor.fontSize": 15,
    "editor.lineHeight": 22,
    "editor.fontFamily": "Fira Code",
    "editor.fontLigatures": true,
    "terminal.integrated.fontSize": 15,
    "editor.wordWrap": "on",
    "editor.formatOnSave": true,
    "python.linting.pylintEnabled": true,
    "python.linting.enabled": true,
    "code-runner.executorMap": {
        "python": "/usr/bin/python3.8 -u $fullFileName"
    },
    "[javascript]": {
        "editor.defaultFormatter": "HookyQR.beautify"
    },
    "workbench.startupEditor": "newUntitledFile",
    "git.autofetch": false,
    "liveServer.settings.donotShowInfoMsg": true,
    "[html]": {
        "editor.defaultFormatter": "vscode.html-language-features"
    },
    "todo-tree.tree.showScanModeButton": false,
    "todo-tree.general.tags": [
        "FIXME",
        "TODO"
    ],
    "todo-tree.highlights.customHighlight": {
        "TODO": {
            "background": "green",
            "foreground": "white",
            "type": "tag",
            "iconColour": "green"
        },
        "FIXME": {
            "background": "black",
            "foreground": "red",
            "type": "tag",
            "icon": "alert"
        }
    },
    "[json]": {
        "editor.defaultFormatter": "vscode.json-language-features"
    },
    "[jsonc]": {
        "editor.defaultFormatter": "vscode.json-language-features"
    },
    "[css]": {
        "editor.defaultFormatter": "esbenp.prettier-vscode"
    },
    "files.associations": {
        ".env": "dotenv"
    },
    "files.watcherExclude": {
        "**/.git/objects/**": true,
        "**/.git/subtree-cache/**": true,
        "**/node_modules/*/**": true
    },
    "[scss]": {
        "editor.defaultFormatter": "esbenp.prettier-vscode"
    }
}